C:\Users\sergi\OneDrive\Escritorio\Sergio\DAM\2DAM\DI\di-srodgen0910\JavaSwing\src\main\java\org\iesvelazquez\di\Register.java
C:\Users\sergi\OneDrive\Escritorio\Sergio\DAM\2DAM\DI\di-srodgen0910\JavaSwing\src\main\java\org\iesvelazquez\di\Welcome.java
C:\Users\sergi\OneDrive\Escritorio\Sergio\DAM\2DAM\DI\di-srodgen0910\JavaSwing\src\main\java\org\iesvelazquez\di\Login.java
